…
<br /> same result with inner, the variable order is the only difference :(

For makeing difference, I will try with conti(continent) dataframe.

``` r
gapminder %>% 
  inner_join(conti)
```

    ## Joining, by = "continent"

    ## Warning: Column `continent` joining factor and character vector, coercing
    ## into character vector

    ## # A tibble: 1,404 x 8
    ##        country continent  year lifeExp      pop gdpPercap hemishpere
    ##         <fctr>     <chr> <int>   <dbl>    <int>     <dbl>      <chr>
    ##  1 Afghanistan      Asia  1952  28.801  8425333  779.4453    Northen
    ##  2 Afghanistan      Asia  1957  30.332  9240934  820.8530    Northen
    ##  3 Afghanistan      Asia  1962  31.997 10267083  853.1007    Northen
    ##  4 Afghanistan      Asia  1967  34.020 11537966  836.1971    Northen
    ##  5 Afghanistan      Asia  1972  36.088 13079460  739.9811    Northen
    ##  6 Afghanistan      Asia  1977  38.438 14880372  786.1134    Northen
    ##  7 Afghanistan      Asia  1982  39.854 12881816  978.0114    Northen
    ##  8 Afghanistan      Asia  1987  40.822 13867957  852.3959    Northen
    ##  9 Afghanistan      Asia  1992  41.674 16317921  649.3414    Northen
    ## 10 Afghanistan      Asia  1997  41.763 22227415  635.3414    Northen
    ## # ... with 1,394 more rows, and 1 more variables: summer <chr>

<br />

``` r
gapminder %>% 
  right_join(conti)
```

    ## Joining, by = "continent"

    ## Warning: Column `continent` joining factor and character vector, coercing
    ## into character vector

    ## # A tibble: 1,405 x 8
    ##        country continent  year lifeExp      pop gdpPercap hemishpere
    ##         <fctr>     <chr> <int>   <dbl>    <int>     <dbl>      <chr>
    ##  1 Afghanistan      Asia  1952  28.801  8425333  779.4453    Northen
    ##  2 Afghanistan      Asia  1957  30.332  9240934  820.8530    Northen
    ##  3 Afghanistan      Asia  1962  31.997 10267083  853.1007    Northen
    ##  4 Afghanistan      Asia  1967  34.020 11537966  836.1971    Northen
    ##  5 Afghanistan      Asia  1972  36.088 13079460  739.9811    Northen
    ##  6 Afghanistan      Asia  1977  38.438 14880372  786.1134    Northen
    ##  7 Afghanistan      Asia  1982  39.854 12881816  978.0114    Northen
    ##  8 Afghanistan      Asia  1987  40.822 13867957  852.3959    Northen
    ##  9 Afghanistan      Asia  1992  41.674 16317921  649.3414    Northen
    ## 10 Afghanistan      Asia  1997  41.763 22227415  635.3414    Northen
    ## # ... with 1,395 more rows, and 1 more variables: summer <chr>
…
