…
``` r
gap2<-gapminder %>% 
  group_by(continent, year) %>% 
  mutate(pop1 = pop*0.001) %>% 
  summarise(population=sum(pop1))
gap2
```

    ## # A tibble: 60 x 3
    ## # Groups:   continent [?]
    ##    continent  year population
    ##       <fctr> <int>      <dbl>
    ##  1    Africa  1952   237640.5
    ##  2    Africa  1957   264837.7
    ##  3    Africa  1962   296516.9
    ##  4    Africa  1967   335289.5
    ##  5    Africa  1972   379879.5
    ##  6    Africa  1977   433061.0
    ##  7    Africa  1982   499348.6
    ##  8    Africa  1987   574834.1
    ##  9    Africa  1992   659081.5
    ## 10    Africa  1997   743833.0
    ## # ... with 50 more rows
…
It only has half of the data because of the logical sentence. a == b a is equal to b. So if we use ==, then as the value of country can only have one value, it will ignore the other value.

``` r
filter(gapminder, country %in% c("Rwanda", "Afghanistan"))
```

    ## # A tibble: 24 x 6
    ##        country continent  year lifeExp      pop gdpPercap
    ##         <fctr>    <fctr> <int>   <dbl>    <int>     <dbl>
    ##  1 Afghanistan      Asia  1952  28.801  8425333  779.4453
    ##  2 Afghanistan      Asia  1957  30.332  9240934  820.8530
    ##  3 Afghanistan      Asia  1962  31.997 10267083  853.1007
    ##  4 Afghanistan      Asia  1967  34.020 11537966  836.1971
    ##  5 Afghanistan      Asia  1972  36.088 13079460  739.9811
    ##  6 Afghanistan      Asia  1977  38.438 14880372  786.1134
    ##  7 Afghanistan      Asia  1982  39.854 12881816  978.0114
    ##  8 Afghanistan      Asia  1987  40.822 13867957  852.3959
    ##  9 Afghanistan      Asia  1992  41.674 16317921  649.3414
    ## 10 Afghanistan      Asia  1997  41.763 22227415  635.3414
    ## # ... with 14 more rows
…
