Hw03-hyeongcheol-park
…
2017-09-30

warming up- install packages

suppressPackageStartupMessages(library(tidyverse))
suppressPackageStartupMessages(library(gapminder))

1.Get the maximum and minimum of GDP per capita for all continents.

(q1<-gapminder %>% 
  group_by(continent, year) %>% 
  mutate(Maxgdp=max(gdpPercap),Mingdp=min(gdpPercap)) %>% 
  select(continent, year, Maxgdp, Mingdp))

## # A tibble: 1,704 x 4
## # Groups:   continent, year [60]
##    continent  year    Maxgdp Mingdp
##       <fctr> <int>     <dbl>  <dbl>
##  1      Asia  1952 108382.35    331
##  2      Asia  1957 113523.13    350
##  3      Asia  1962  95458.11    388
##  4      Asia  1967  80894.88    349
##  5      Asia  1972 109347.87    357
##  6      Asia  1977  59265.48    371
##  7      Asia  1982  33693.18    424
##  8      Asia  1987  28118.43    385
##  9      Asia  1992  34932.92    347
## 10      Asia  1997  40300.62    415
## # ... with 1,694 more rows
…
Or we can use this.

3.Compute a trimmed mean of life expectancy for different years.

How is life expectancy changing over time on different continents?

(newlife<-gapminder %>% 
  group_by(country) %>% 
 mutate(newlife_exp=lifeExp*year[year==2007]/year))

## # A tibble: 1,704 x 7
## # Groups:   country [142]
##        country continent  year lifeExp      pop gdpPercap newlife_exp
##         <fctr>    <fctr> <int>   <dbl>    <int>     <dbl>       <dbl>
##  1 Afghanistan      Asia  1952  28.801  8425333  779.4453    29.61250
##  2 Afghanistan      Asia  1957  30.332  9240934  820.8530    31.10696
##  3 Afghanistan      Asia  1962  31.997 10267083  853.1007    32.73088
##  4 Afghanistan      Asia  1967  34.020 11537966  836.1971    34.71181
##  5 Afghanistan      Asia  1972  36.088 13079460  739.9811    36.72851
##  6 Afghanistan      Asia  1977  38.438 14880372  786.1134    39.02128
##  7 Afghanistan      Asia  1982  39.854 12881816  978.0114    40.35670
##  8 Afghanistan      Asia  1987  40.822 13867957  852.3959    41.23289
##  9 Afghanistan      Asia  1992  41.674 16317921  649.3414    41.98781
## 10 Afghanistan      Asia  1997  41.763 22227415  635.3414    41.97213
## # ... with 1,694 more rows
…
Still there is the tendency that comtemporary people live longer.

4.Report the absolute and/or relative abundance of countries with low life expectancy over time by continent

I will use my scaled age

(belowage<-newlife %>% 
  group_by(continent) %>% 
  mutate(meanage=median(lifeExp)))

## # A tibble: 1,704 x 8
## # Groups:   continent [5]
##        country continent  year lifeExp      pop gdpPercap newlife_exp
##         <fctr>    <fctr> <int>   <dbl>    <int>     <dbl>       <dbl>
##  1 Afghanistan      Asia  1952  28.801  8425333  779.4453    29.61250
##  2 Afghanistan      Asia  1957  30.332  9240934  820.8530    31.10696
##  3 Afghanistan      Asia  1962  31.997 10267083  853.1007    32.73088
##  4 Afghanistan      Asia  1967  34.020 11537966  836.1971    34.71181
##  5 Afghanistan      Asia  1972  36.088 13079460  739.9811    36.72851
##  6 Afghanistan      Asia  1977  38.438 14880372  786.1134    39.02128
##  7 Afghanistan      Asia  1982  39.854 12881816  978.0114    40.35670
##  8 Afghanistan      Asia  1987  40.822 13867957  852.3959    41.23289
##  9 Afghanistan      Asia  1992  41.674 16317921  649.3414    41.98781
## 10 Afghanistan      Asia  1997  41.763 22227415  635.3414    41.97213
## # ... with 1,694 more rows, and 1 more variables: meanage <dbl>

I got the average of lifeExp for every continent.

(below<-belowage %>% 
  filter(newlife_exp <= meanage))

## # A tibble: 792 x 8
## # Groups:   continent [5]
##        country continent  year lifeExp      pop gdpPercap newlife_exp
##         <fctr>    <fctr> <int>   <dbl>    <int>     <dbl>       <dbl>
##  1 Afghanistan      Asia  1952  28.801  8425333  779.4453    29.61250
##  2 Afghanistan      Asia  1957  30.332  9240934  820.8530    31.10696
##  3 Afghanistan      Asia  1962  31.997 10267083  853.1007    32.73088
##  4 Afghanistan      Asia  1967  34.020 11537966  836.1971    34.71181
##  5 Afghanistan      Asia  1972  36.088 13079460  739.9811    36.72851
##  6 Afghanistan      Asia  1977  38.438 14880372  786.1134    39.02128
##  7 Afghanistan      Asia  1982  39.854 12881816  978.0114    40.35670
##  8 Afghanistan      Asia  1987  40.822 13867957  852.3959    41.23289
##  9 Afghanistan      Asia  1992  41.674 16317921  649.3414    41.98781
## 10 Afghanistan      Asia  1997  41.763 22227415  635.3414    41.97213
## # ... with 782 more rows, and 1 more variables: meanage <dbl>

there are 792 countries whose lifeExp is below their continents median, from 1952 to 2007.

below %>% 
  group_by(year, continent) %>% 
  summarize(num=n())

## # A tibble: 54 x 3
## # Groups:   year [?]
##     year continent   num
##    <int>    <fctr> <int>
##  1  1952    Africa    48
##  2  1952  Americas    22
##  3  1952      Asia    29
##  4  1952    Europe    25
##  5  1952   Oceania     2
##  6  1957    Africa    45
##  7  1957  Americas    21
##  8  1957      Asia    27
##  9  1957    Europe    24
## 10  1957   Oceania     2
## # ... with 44 more rows
…
