…
``` r
suppressPackageStartupMessages(library(tidyverse))
suppressPackageStartupMessages(library(gapminder))
```

### 1.Let's get the maximum and minimum of GDP per capita for all continents!

``` r
(q1<-gapminder %>% 
  group_by(continent, year) %>% 
  mutate(Maxgdp=max(gdpPercap),Mingdp=min(gdpPercap)) %>% 
  select(continent, year, Maxgdp, Mingdp))
```

    ## # A tibble: 1,704 x 4
    ## # Groups:   continent, year [60]
    ##    continent  year    Maxgdp Mingdp
    ##       <fctr> <int>     <dbl>  <dbl>
    ##  1      Asia  1952 108382.35    331
    ##  2      Asia  1957 113523.13    350
    ##  3      Asia  1962  95458.11    388
    ##  4      Asia  1967  80894.88    349
    ##  5      Asia  1972 109347.87    357
    ##  6      Asia  1977  59265.48    371
    ##  7      Asia  1982  33693.18    424
    ##  8      Asia  1987  28118.43    385
    ##  9      Asia  1992  34932.92    347
    ## 10      Asia  1997  40300.62    415
    ## # ... with 1,694 more rows
…
### 2.Look at the spread of GDP per capita within the continents.

``` r
gapminder %>% 
  group_by(continent, year) %>% 
  summarize(mean_gdp=mean(gdpPercap), sd_gdp=sd(gdpPercap), min_gdp=min(gdpPercap),max_gdp=max(gdpPercap),median_gdp=median(gdpPercap))
```

    ## # A tibble: 60 x 7
    ## # Groups:   continent [?]
    ##    continent  year mean_gdp    sd_gdp  min_gdp   max_gdp median_gdp
    ##       <fctr> <int>    <dbl>     <dbl>    <dbl>     <dbl>      <dbl>
    ##  1    Africa  1952 1252.572  982.9521 298.8462  4725.296   987.0256
    ##  2    Africa  1957 1385.236 1134.5089 335.9971  5487.104  1024.0230
    ##  3    Africa  1962 1598.079 1461.8392 355.2032  6757.031  1133.7837
    ##  4    Africa  1967 2050.364 2847.7176 412.9775 18772.752  1210.3764
    ##  5    Africa  1972 2339.616 3286.8539 464.0995 21011.497  1443.3725
    ##  6    Africa  1977 2585.939 4142.3987 502.3197 21951.212  1399.6388
    ##  7    Africa  1982 2481.593 3242.6328 462.2114 17364.275  1323.7283
    ##  8    Africa  1987 2282.669 2566.5319 389.8762 11864.408  1219.5856
    ##  9    Africa  1992 2281.810 2644.0756 410.8968 13522.158  1161.6314
    ## 10    Africa  1997 2378.760 2820.7281 312.1884 14722.842  1179.8831
    ## # ... with 50 more rows
…
### 3.Compute a trimmed mean of life expectancy for different years.

### How is life expectancy changing over time on different continents?

``` r
(newlife<-gapminder %>% 
  group_by(country) %>% 
 mutate(newlife_exp=lifeExp*year[year==2007]/year))
```

    ## # A tibble: 1,704 x 7
    ## # Groups:   country [142]
    ##        country continent  year lifeExp      pop gdpPercap newlife_exp
    ##         <fctr>    <fctr> <int>   <dbl>    <int>     <dbl>       <dbl>
    ##  1 Afghanistan      Asia  1952  28.801  8425333  779.4453    29.61250
    ##  2 Afghanistan      Asia  1957  30.332  9240934  820.8530    31.10696
    ##  3 Afghanistan      Asia  1962  31.997 10267083  853.1007    32.73088
    ##  4 Afghanistan      Asia  1967  34.020 11537966  836.1971    34.71181
    ##  5 Afghanistan      Asia  1972  36.088 13079460  739.9811    36.72851
    ##  6 Afghanistan      Asia  1977  38.438 14880372  786.1134    39.02128
    ##  7 Afghanistan      Asia  1982  39.854 12881816  978.0114    40.35670
    ##  8 Afghanistan      Asia  1987  40.822 13867957  852.3959    41.23289
    ##  9 Afghanistan      Asia  1992  41.674 16317921  649.3414    41.98781
    ## 10 Afghanistan      Asia  1997  41.763 22227415  635.3414    41.97213
    ## # ... with 1,694 more rows
…
<br />Still there is the tendency that comtemporary people live longer.

### 4.Report the absolute and/or relative abundance of countries with low life expectancy over time by continent

**I will use median lifeExp for each continent.**

``` r
(belowage<-newlife %>% 
  group_by(continent) %>% 
  mutate(meanage=median(lifeExp)))
```

    ## # A tibble: 1,704 x 8
    ## # Groups:   continent [5]
    ##        country continent  year lifeExp      pop gdpPercap newlife_exp
    ##         <fctr>    <fctr> <int>   <dbl>    <int>     <dbl>       <dbl>
    ##  1 Afghanistan      Asia  1952  28.801  8425333  779.4453    29.61250
    ##  2 Afghanistan      Asia  1957  30.332  9240934  820.8530    31.10696
    ##  3 Afghanistan      Asia  1962  31.997 10267083  853.1007    32.73088
    ##  4 Afghanistan      Asia  1967  34.020 11537966  836.1971    34.71181
    ##  5 Afghanistan      Asia  1972  36.088 13079460  739.9811    36.72851
    ##  6 Afghanistan      Asia  1977  38.438 14880372  786.1134    39.02128
    ##  7 Afghanistan      Asia  1982  39.854 12881816  978.0114    40.35670
    ##  8 Afghanistan      Asia  1987  40.822 13867957  852.3959    41.23289
    ##  9 Afghanistan      Asia  1992  41.674 16317921  649.3414    41.98781
    ## 10 Afghanistan      Asia  1997  41.763 22227415  635.3414    41.97213
    ## # ... with 1,694 more rows, and 1 more variables: meanage <dbl>

<br />I got the average of lifeExp for every continent.

``` r
(below<-belowage %>% 
  filter(newlife_exp <= meanage))
```

    ## # A tibble: 792 x 8
    ## # Groups:   continent [5]
    ##        country continent  year lifeExp      pop gdpPercap newlife_exp
    ##         <fctr>    <fctr> <int>   <dbl>    <int>     <dbl>       <dbl>
    ##  1 Afghanistan      Asia  1952  28.801  8425333  779.4453    29.61250
    ##  2 Afghanistan      Asia  1957  30.332  9240934  820.8530    31.10696
    ##  3 Afghanistan      Asia  1962  31.997 10267083  853.1007    32.73088
    ##  4 Afghanistan      Asia  1967  34.020 11537966  836.1971    34.71181
    ##  5 Afghanistan      Asia  1972  36.088 13079460  739.9811    36.72851
    ##  6 Afghanistan      Asia  1977  38.438 14880372  786.1134    39.02128
    ##  7 Afghanistan      Asia  1982  39.854 12881816  978.0114    40.35670
    ##  8 Afghanistan      Asia  1987  40.822 13867957  852.3959    41.23289
    ##  9 Afghanistan      Asia  1992  41.674 16317921  649.3414    41.98781
    ## 10 Afghanistan      Asia  1997  41.763 22227415  635.3414    41.97213
    ## # ... with 782 more rows, and 1 more variables: meanage <dbl>

<br />there are 792 countries whose lifeExp is below their continent's median, from 1952 to 2007.

``` r
below %>% 
  group_by(year, continent) %>% 
  summarize(num=n())
```

    ## # A tibble: 54 x 3
    ## # Groups:   year [?]
    ##     year continent   num
    ##    <int>    <fctr> <int>
    ##  1  1952    Africa    48
    ##  2  1952  Americas    22
    ##  3  1952      Asia    29
    ##  4  1952    Europe    25
    ##  5  1952   Oceania     2
    ##  6  1957    Africa    45
    ##  7  1957  Americas    21
    ##  8  1957      Asia    27
    ##  9  1957    Europe    24
    ## 10  1957   Oceania     2
    ## # ... with 44 more rows
…
5.Find countries with interesting stories.
------------------------------------------

``` r
gapminder %>% 
  mutate(diff=gdpPercap-lifeExp*10^2) %>% 
  arrange(desc(diff)) %>% 
  select(year,country,diff,lifeExp,gdpPercap)
```

    ## # A tibble: 1,704 x 5
    ##     year   country      diff lifeExp gdpPercap
    ##    <int>    <fctr>     <dbl>   <dbl>     <dbl>
    ##  1  1957    Kuwait 107719.83  58.033 113523.13
    ##  2  1952    Kuwait 102825.85  55.565 108382.35
    ##  3  1972    Kuwait 102576.67  67.712 109347.87
    ##  4  1962    Kuwait  89411.11  60.470  95458.11
    ##  5  1967    Kuwait  74432.48  64.624  80894.88
    ##  6  1977    Kuwait  52331.18  69.343  59265.48
    ##  7  2007    Norway  41337.59  80.196  49357.19
    ##  8  2007    Kuwait  39548.19  77.588  47306.99
    ##  9  2007 Singapore  39145.98  79.972  47143.18
    ## 10  2002    Norway  36778.98  79.050  44683.98
    ## # ... with 1,694 more rows
…
